         //:::::::::::::::::::::::::::::::::::::::::::::\\
       //:::_______:::::::::________::::::::::_____:::::::\\
     //:::_/   _-"":::_--"""        """--_::::\_  ):::::::::\\
    //:::/    /:::::_"                    "-_:::\/:::::|^\:::\\
   //:::/   /~::::::I__                      \:::::::::|  \:::\\
   \\:::\   (::::::::::""""---___________     "--------"  /::://
    \\:::\  |::::::::::::::::::::::::::::""""==____      /::://
     \\:::"\/::::::::::::::::::::::::::::::::::::::\   /~::://
       \\:::::::::::::::::::::::::::::::::::::::::::)/~::://
         \\::::\""""""------_____::::::::::::::::::::::://
           \\:::"\               """""-----_____:::::://
             \\:::"\    __----__                )::://
               \\:::"\/~::::::::~\_         __/~:://
                 \\::::::::::::::::""----""":::://
                   \\::::::::::::::::::::::::://
                     \\:::\^""--._.--""^/::://
                       \\::"\         /":://
                         \\::"\     /":://
                           \\::"\_/":://
                             \\::::://
                               \\_//
                                 "